<?xml version="1.0" encoding="UTF-8" standalone="no"?>
<graphml xmlns="http://graphml.graphdrawing.org/xmlns" xmlns:java="http://www.yworks.com/xml/yfiles-common/1.0/java" xmlns:sys="http://www.yworks.com/xml/yfiles-common/markup/primitives/2.0" xmlns:x="http://www.yworks.com/xml/yfiles-common/markup/2.0" xmlns:xsi="http://www.w3.org/2001/XMLSchema-instance" xmlns:y="http://www.yworks.com/xml/graphml" xmlns:yed="http://www.yworks.com/xml/yed/3" xsi:schemaLocation="http://graphml.graphdrawing.org/xmlns http://www.yworks.com/xml/schema/graphml/1.1/ygraphml.xsd">
  <!--Created by yEd 3.14.4-->
  <key attr.name="Description" attr.type="string" for="graph" id="d0"/>
  <key for="port" id="d1" yfiles.type="portgraphics"/>
  <key for="port" id="d2" yfiles.type="portgeometry"/>
  <key for="port" id="d3" yfiles.type="portuserdata"/>
  <key attr.name="url" attr.type="string" for="node" id="d4"/>
  <key attr.name="description" attr.type="string" for="node" id="d5"/>
  <key for="node" id="d6" yfiles.type="nodegraphics"/>
  <key for="graphml" id="d7" yfiles.type="resources"/>
  <key attr.name="url" attr.type="string" for="edge" id="d8"/>
  <key attr.name="description" attr.type="string" for="edge" id="d9"/>
  <key for="edge" id="d10" yfiles.type="edgegraphics"/>
  <graph edgedefault="directed" id="G">
    <data key="d0"/>
    <node id="n0">
      <data key="d5"/>
      <data key="d6">
        <y:ShapeNode>
          <y:Geometry height="414.0" width="570.8" x="164.60000000000002" y="80.9"/>
          <y:Fill color="#FFFFFF" transparent="false"/>
          <y:BorderStyle color="#000000" type="line" width="1.0"/>
          <y:NodeLabel alignment="center" autoSizePolicy="content" fontFamily="Dialog" fontSize="12" fontStyle="plain" hasBackgroundColor="false" hasLineColor="false" height="31.9375" modelName="internal" modelPosition="t" textColor="#000000" visible="true" width="207.794921875" x="181.50253906249998" y="4.0">PostgreSQL University
Basic Relationship - CO &amp; Student</y:NodeLabel>
          <y:Shape type="rectangle"/>
        </y:ShapeNode>
      </data>
    </node>
    <node id="n1">
      <data key="d5"/>
      <data key="d6">
        <y:ShapeNode>
          <y:Geometry height="150.20000000000007" width="150.60000000000002" x="205.5" y="143.0"/>
          <y:Fill color="#CCFFFF" transparent="false"/>
          <y:BorderStyle color="#000000" type="line" width="1.0"/>
          <y:NodeLabel alignment="center" autoSizePolicy="content" fontFamily="Dialog" fontSize="12" fontStyle="plain" hasBackgroundColor="false" hasLineColor="false" height="17.96875" modelName="internal" modelPosition="t" textColor="#000000" visible="true" width="100.97265625" x="24.81367187500001" y="4.0">Content Owners</y:NodeLabel>
          <y:Shape type="rectangle"/>
        </y:ShapeNode>
      </data>
    </node>
    <node id="n2">
      <data key="d5"/>
      <data key="d6">
        <y:SVGNode>
          <y:Geometry height="58.38100051879883" width="58.50005340576172" x="251.74997329711914" y="180.8094997406006"/>
          <y:Fill color="#CCCCFF" transparent="false"/>
          <y:BorderStyle color="#000000" type="line" width="1.0"/>
          <y:NodeLabel alignment="center" autoSizePolicy="content" fontFamily="Dialog" fontSize="12" fontStyle="plain" hasBackgroundColor="false" hasLineColor="false" height="17.96875" modelName="custom" textColor="#000000" visible="true" width="50.65234375" x="3.9238548278808594" y="62.38100051879883">Authors<y:LabelModel>
              <y:SmartNodeLabelModel distance="4.0"/>
            </y:LabelModel>
            <y:ModelParameter>
              <y:SmartNodeLabelModelParameter labelRatioX="0.0" labelRatioY="-0.5" nodeRatioX="0.0" nodeRatioY="0.5" offsetX="0.0" offsetY="4.0" upX="0.0" upY="-1.0"/>
            </y:ModelParameter>
          </y:NodeLabel>
          <y:SVGNodeProperties usingVisualBounds="false"/>
          <y:SVGModel svgBoundsPolicy="0">
            <y:SVGContent refid="1"/>
          </y:SVGModel>
        </y:SVGNode>
      </data>
    </node>
    <node id="n3">
      <data key="d5"/>
      <data key="d6">
        <y:SVGNode>
          <y:Geometry height="69.9489974975586" width="56.55509948730469" x="601.7224502563477" y="175.0255012512207"/>
          <y:Fill color="#CCCCFF" transparent="false"/>
          <y:BorderStyle color="#000000" type="line" width="1.0"/>
          <y:NodeLabel alignment="center" autoSizePolicy="content" fontFamily="Dialog" fontSize="12" fontStyle="plain" hasBackgroundColor="false" hasLineColor="false" height="17.96875" modelName="custom" textColor="#000000" visible="true" width="51.23828125" x="2.6584091186523438" y="73.9489974975586">Student<y:LabelModel>
              <y:SmartNodeLabelModel distance="4.0"/>
            </y:LabelModel>
            <y:ModelParameter>
              <y:SmartNodeLabelModelParameter labelRatioX="0.0" labelRatioY="-0.5" nodeRatioX="0.0" nodeRatioY="0.5" offsetX="0.0" offsetY="4.0" upX="0.0" upY="-1.0"/>
            </y:ModelParameter>
          </y:NodeLabel>
          <y:SVGNodeProperties usingVisualBounds="true"/>
          <y:SVGModel svgBoundsPolicy="0">
            <y:SVGContent refid="2"/>
          </y:SVGModel>
        </y:SVGNode>
      </data>
    </node>
    <node id="n4">
      <data key="d5"/>
      <data key="d6">
        <y:ShapeNode>
          <y:Geometry height="58.38100051879883" width="74.0" x="426.6" y="180.8094997406006"/>
          <y:Fill color="#FFCC00" transparent="false"/>
          <y:BorderStyle color="#000000" type="line" width="1.0"/>
          <y:NodeLabel alignment="center" autoSizePolicy="content" fontFamily="Dialog" fontSize="12" fontStyle="plain" hasBackgroundColor="false" hasLineColor="false" height="17.96875" modelName="custom" textColor="#000000" visible="true" width="51.724609375" x="11.1376953125" y="20.206125259399414">Content<y:LabelModel>
              <y:SmartNodeLabelModel distance="4.0"/>
            </y:LabelModel>
            <y:ModelParameter>
              <y:SmartNodeLabelModelParameter labelRatioX="0.0" labelRatioY="0.0" nodeRatioX="0.0" nodeRatioY="0.0" offsetX="0.0" offsetY="0.0" upX="0.0" upY="-1.0"/>
            </y:ModelParameter>
          </y:NodeLabel>
          <y:Shape type="octagon"/>
        </y:ShapeNode>
      </data>
    </node>
    <node id="n5">
      <data key="d5"/>
      <data key="d6">
        <y:ShapeNode>
          <y:Geometry height="58.38100051879883" width="128.39999999999998" x="385.8" y="390.8094997406006"/>
          <y:Fill color="#FF6600" transparent="false"/>
          <y:BorderStyle color="#000000" type="line" width="1.0"/>
          <y:NodeLabel alignment="center" autoSizePolicy="content" fontFamily="Dialog" fontSize="12" fontStyle="plain" hasBackgroundColor="false" hasLineColor="false" height="17.96875" modelName="custom" textColor="#000000" visible="true" width="83.482421875" x="22.458789062500045" y="20.206125259399414">Certifications<y:LabelModel>
              <y:SmartNodeLabelModel distance="4.0"/>
            </y:LabelModel>
            <y:ModelParameter>
              <y:SmartNodeLabelModelParameter labelRatioX="0.0" labelRatioY="0.0" nodeRatioX="0.0" nodeRatioY="0.0" offsetX="0.0" offsetY="0.0" upX="0.0" upY="-1.0"/>
            </y:ModelParameter>
          </y:NodeLabel>
          <y:Shape type="rectangle"/>
        </y:ShapeNode>
      </data>
    </node>
    <edge id="e0" source="n2" target="n4">
      <data key="d9"/>
      <data key="d10">
        <y:QuadCurveEdge straightness="0.1">
          <y:Path sx="0.0" sy="0.0" tx="0.0" ty="0.0"/>
          <y:LineStyle color="#000000" type="line" width="1.0"/>
          <y:Arrows source="none" target="standard"/>
          <y:EdgeLabel alignment="center" backgroundColor="#FFFFFF" configuration="AutoFlippingLabel" distance="2.0" fontFamily="Dialog" fontSize="12" fontStyle="plain" hasLineColor="false" height="17.96875" modelName="custom" preferredPlacement="anywhere" ratio="0.5" textColor="#000000" visible="true" width="48.607421875" x="33.83217887878419" y="-8.984375">creates<y:LabelModel>
              <y:SmartEdgeLabelModel autoRotationEnabled="false" defaultAngle="0.0" defaultDistance="10.0"/>
            </y:LabelModel>
            <y:ModelParameter>
              <y:SmartEdgeLabelModelParameter angle="0.0" distance="30.0" distanceToCenter="true" position="center" ratio="0.5" segment="0"/>
            </y:ModelParameter>
            <y:PreferredPlacementDescriptor angle="0.0" angleOffsetOnRightSide="0" angleReference="absolute" angleRotationOnRightSide="co" distance="-1.0" frozen="true" placement="anywhere" side="anywhere" sideReference="relative_to_edge_flow"/>
          </y:EdgeLabel>
        </y:QuadCurveEdge>
      </data>
    </edge>
    <edge id="e1" source="n1" target="n5">
      <data key="d9"/>
      <data key="d10">
        <y:QuadCurveEdge straightness="0.1">
          <y:Path sx="0.0" sy="0.0" tx="0.0" ty="0.0">
            <y:Point x="330.0" y="341.3929599999999"/>
          </y:Path>
          <y:LineStyle color="#000000" type="line" width="1.0"/>
          <y:Arrows source="none" target="standard"/>
          <y:EdgeLabel alignment="center" backgroundColor="#FFFFFF" configuration="AutoFlippingLabel" distance="2.0" fontFamily="Dialog" fontSize="12" fontStyle="plain" hasLineColor="false" height="17.96875" modelName="custom" preferredPlacement="anywhere" ratio="0.5" textColor="#000000" visible="true" width="35.6875" x="1.055999755859375" y="39.21626322265615">gives<y:LabelModel>
              <y:SmartEdgeLabelModel autoRotationEnabled="false" defaultAngle="0.0" defaultDistance="10.0"/>
            </y:LabelModel>
            <y:ModelParameter>
              <y:SmartEdgeLabelModelParameter angle="0.0" distance="30.0" distanceToCenter="true" position="center" ratio="1.0" segment="0"/>
            </y:ModelParameter>
            <y:PreferredPlacementDescriptor angle="0.0" angleOffsetOnRightSide="0" angleReference="absolute" angleRotationOnRightSide="co" distance="-1.0" frozen="true" placement="anywhere" side="anywhere" sideReference="relative_to_edge_flow"/>
          </y:EdgeLabel>
        </y:QuadCurveEdge>
      </data>
    </edge>
    <edge id="e2" source="n5" target="n3">
      <data key="d9"/>
      <data key="d10">
        <y:QuadCurveEdge straightness="0.1">
          <y:Path sx="0.0" sy="0.0" tx="0.0" ty="0.0">
            <y:Point x="600.0" y="347.7929599999999"/>
          </y:Path>
          <y:LineStyle color="#000000" type="line" width="1.0"/>
          <y:Arrows source="none" target="standard"/>
          <y:EdgeLabel alignment="center" backgroundColor="#FFFFFF" configuration="AutoFlippingLabel" distance="2.0" fontFamily="Dialog" fontSize="12" fontStyle="plain" hasLineColor="false" height="17.96875" modelName="custom" preferredPlacement="anywhere" ratio="0.5" textColor="#000000" visible="true" width="16.046875" x="81.33737182617188" y="-52.00092427734387">to<y:LabelModel>
              <y:SmartEdgeLabelModel autoRotationEnabled="false" defaultAngle="0.0" defaultDistance="10.0"/>
            </y:LabelModel>
            <y:ModelParameter>
              <y:SmartEdgeLabelModelParameter angle="0.0" distance="30.0" distanceToCenter="true" position="center" ratio="1.0" segment="0"/>
            </y:ModelParameter>
            <y:PreferredPlacementDescriptor angle="0.0" angleOffsetOnRightSide="0" angleReference="absolute" angleRotationOnRightSide="co" distance="-1.0" frozen="true" placement="anywhere" side="anywhere" sideReference="relative_to_edge_flow"/>
          </y:EdgeLabel>
        </y:QuadCurveEdge>
      </data>
    </edge>
    <edge id="e3" source="n3" target="n4">
      <data key="d9"/>
      <data key="d10">
        <y:QuadCurveEdge straightness="0.1">
          <y:Path sx="0.0" sy="0.0" tx="0.0" ty="0.0"/>
          <y:LineStyle color="#000000" type="line" width="1.0"/>
          <y:Arrows source="none" target="standard"/>
          <y:EdgeLabel alignment="center" backgroundColor="#FFFFFF" configuration="AutoFlippingLabel" distance="2.0" fontFamily="Dialog" fontSize="12" fontStyle="plain" hasLineColor="false" height="17.96875" modelName="custom" preferredPlacement="anywhere" ratio="0.5" textColor="#000000" visible="true" width="36.642578125" x="-81.76321334838872" y="-8.984375">takes<y:LabelModel>
              <y:SmartEdgeLabelModel autoRotationEnabled="false" defaultAngle="0.0" defaultDistance="10.0"/>
            </y:LabelModel>
            <y:ModelParameter>
              <y:SmartEdgeLabelModelParameter angle="0.0" distance="30.0" distanceToCenter="true" position="center" ratio="0.5" segment="0"/>
            </y:ModelParameter>
            <y:PreferredPlacementDescriptor angle="0.0" angleOffsetOnRightSide="0" angleReference="absolute" angleRotationOnRightSide="co" distance="-1.0" frozen="true" placement="anywhere" side="anywhere" sideReference="relative_to_edge_flow"/>
          </y:EdgeLabel>
        </y:QuadCurveEdge>
      </data>
    </edge>
  </graph>
  <data key="d7">
    <y:Resources>
      <y:Resource id="1">&lt;?xml version="1.0" encoding="utf-8"?&gt;
&lt;svg version="1.1" id="Ebene_1" xmlns="http://www.w3.org/2000/svg" xmlns:xlink="http://www.w3.org/1999/xlink" x="0px" y="0px"
	 width="59px" height="59px" viewBox="0 0 59 59" enable-background="new 0 0 59 59" xml:space="preserve"&gt;
&lt;g&gt;
	
		&lt;linearGradient id="neck_x5F_white_1_" gradientUnits="userSpaceOnUse" x1="13.6323" y1="-1502.7422" x2="14.3617" y2="-1520.2559" gradientTransform="matrix(1 0 0 -1 0.2002 -1487.2285)"&gt;
		&lt;stop  offset="0.2711" style="stop-color:#FFAB4F"/&gt;
		&lt;stop  offset="1" style="stop-color:#FFD28F"/&gt;
	&lt;/linearGradient&gt;
	&lt;path id="neck_x5F_white_19_" fill="url(#neck_x5F_white_1_)" stroke="#FFAB4F" stroke-width="0.5" stroke-miterlimit="10" d="
		M9.639,18.899h9.093v10.115c-0.656,0.186-8.586,0.218-9.093,0.086V18.899z"/&gt;
	
		&lt;linearGradient id="SVGID_1_" gradientUnits="userSpaceOnUse" x1="13.1294" y1="-1499.207" x2="13.75" y2="-1514.1072" gradientTransform="matrix(1 0 0 -1 0.2002 -1487.2285)"&gt;
		&lt;stop  offset="0.2711" style="stop-color:#FFAB4F"/&gt;
		&lt;stop  offset="1" style="stop-color:#FFD28F"/&gt;
	&lt;/linearGradient&gt;
	&lt;path fill="url(#SVGID_1_)" stroke="#ED9135" stroke-width="0.5" stroke-miterlimit="10" d="M24.766,25.612
		c-2.199-2.197-5.477-2.941-6.033-3.055v-3.658H9.639c0,0,0.019,3.452,0,3.435c0,0-3.437,0.499-6.154,3.216
		c-2.796,2.796-3.235,5.835-3.235,5.835c0,0.971,0.788,1.746,1.762,1.746h24.255c0.974,0,1.761-0.777,1.761-1.746
		C28.027,31.384,27.105,27.953,24.766,25.612z"/&gt;
	
		&lt;radialGradient id="face_x5F_white_1_" cx="13.7515" cy="-1500.0908" r="11.7123" fx="11.4666" fy="-1501.3357" gradientTransform="matrix(1 0 0 -1 0.2002 -1487.2285)" gradientUnits="userSpaceOnUse"&gt;
		&lt;stop  offset="0" style="stop-color:#FFD28F"/&gt;
		&lt;stop  offset="1" style="stop-color:#FFAB4F"/&gt;
	&lt;/radialGradient&gt;
	&lt;path id="face_x5F_white_19_" fill="url(#face_x5F_white_1_)" stroke="#ED9135" stroke-width="0.5" stroke-miterlimit="10" d="
		M21.838,11.679c0.043,5.1-3.369,9.26-7.623,9.293C9.964,21.006,6.483,16.899,6.44,11.8c-0.042-5.1,3.37-9.261,7.622-9.294
		C18.314,2.473,21.795,6.579,21.838,11.679z"/&gt;
	
		&lt;linearGradient id="face_highlight_1_" gradientUnits="userSpaceOnUse" x1="4300.0391" y1="8522.0703" x2="4311.8545" y2="8568.7988" gradientTransform="matrix(0.275 0 0 0.2733 -1169.7629 -2324.9595)"&gt;
		&lt;stop  offset="0" style="stop-color:#FFFFFF;stop-opacity:0.24"/&gt;
		&lt;stop  offset="1" style="stop-color:#FFFFFF;stop-opacity:0.16"/&gt;
	&lt;/linearGradient&gt;
	&lt;path id="face_highlight_19_" fill="url(#face_highlight_1_)" d="M13.979,3.166c-3.018,0.023-5.374,2.247-6.394,5.193
		c-0.332,0.96-0.147,2.021,0.49,2.814c1.365,1.699,2.865,3.142,4.73,4.044c1.569,0.759,3.767,1.192,5.946,0.624
		c1.139-0.297,1.994-1.229,2.188-2.383c0.092-0.548,0.146-1.145,0.143-1.777C21.041,6.977,18.137,3.134,13.979,3.166z"/&gt;
	
		&lt;path id="Hair_Female_1_Black_9_" fill="#4B4B4B" stroke="#000000" stroke-width="0.5" stroke-linecap="round" stroke-linejoin="round" d="
		M14.187,0.25c-5.418,0-10.052,3.624-9.61,12.813c0.282,3.281,2.931,6.021,4.683,6.766C7.795,14.344,9.107,7.317,8.967,7.064
		c-0.14-0.252,1.769,3.364,1.769,3.364l1.591-4.155c2.771,2.14,0.197,5.654,0.524,5.528c2.129-0.815,2.67-4.614,2.67-4.614
		s1.364,1.829,1.35,2.752c-0.025,1.781,1.098-3.033,1.098-3.033l0.514,1.016c3.363,4.911,1.842,8.104,0.826,11.391
		c7.834-0.352,6.146-5.24,4.83-9.203C21.795,3.046,19.604,0.25,14.187,0.25z"/&gt;
	
		&lt;linearGradient id="body_1_" gradientUnits="userSpaceOnUse" x1="53.4854" y1="2393.7295" x2="21.2897" y2="2393.7295" gradientTransform="matrix(0.9852 0 0 0.9852 -22.6981 -2330.2188)"&gt;
		&lt;stop  offset="0" style="stop-color:#49AD33"/&gt;
		&lt;stop  offset="1" style="stop-color:#C2DA92"/&gt;
	&lt;/linearGradient&gt;
	&lt;path id="body_63_" fill="url(#body_1_)" stroke="#008D33" stroke-width="0.5" d="M0.25,31.384c0,0.97,0.788,1.747,1.762,1.747
		h24.255c0.974,0,1.761-0.779,1.761-1.747c0,0-0.922-3.431-3.262-5.771c-2.408-2.406-4.123-2.572-4.123-2.572
		c-0.723,3.491-4.277,4.393-6.503,4.393c-2.227,0-5.75-0.994-6.06-4.393c0,0-1.877-0.207-4.594,2.51
		C0.689,28.345,0.25,31.384,0.25,31.384z"/&gt;
	
		&lt;linearGradient id="neck_x5F_white_3_" gradientUnits="userSpaceOnUse" x1="43.8525" y1="-1502.7417" x2="44.5819" y2="-1520.2552" gradientTransform="matrix(1 0 0 -1 0.2002 -1487.2285)"&gt;
		&lt;stop  offset="0.2711" style="stop-color:#FFAB4F"/&gt;
		&lt;stop  offset="1" style="stop-color:#FFD28F"/&gt;
	&lt;/linearGradient&gt;
	&lt;path id="neck_x5F_white_17_" fill="url(#neck_x5F_white_3_)" stroke="#FFAB4F" stroke-width="0.5" stroke-miterlimit="10" d="
		M39.859,18.899h9.094v10.115c-0.656,0.186-8.586,0.218-9.094,0.086V18.899z"/&gt;
	
		&lt;linearGradient id="SVGID_2_" gradientUnits="userSpaceOnUse" x1="43.3506" y1="-1499.2075" x2="43.9712" y2="-1514.1077" gradientTransform="matrix(1 0 0 -1 0.2002 -1487.2285)"&gt;
		&lt;stop  offset="0.2711" style="stop-color:#FFAB4F"/&gt;
		&lt;stop  offset="1" style="stop-color:#FFD28F"/&gt;
	&lt;/linearGradient&gt;
	&lt;path fill="url(#SVGID_2_)" stroke="#ED9135" stroke-width="0.5" stroke-miterlimit="10" d="M54.986,25.612
		c-2.199-2.197-5.478-2.941-6.033-3.055v-3.658h-9.094c0,0,0.02,3.452,0,3.435c0,0-3.438,0.499-6.153,3.216
		c-2.796,2.796-3.235,5.835-3.235,5.835c0,0.971,0.787,1.746,1.762,1.746h24.256c0.974,0,1.761-0.777,1.761-1.746
		C58.248,31.384,57.326,27.953,54.986,25.612z"/&gt;
	
		&lt;radialGradient id="face_x5F_white_3_" cx="43.9727" cy="-1500.0908" r="11.7111" fx="41.6881" fy="-1501.3356" gradientTransform="matrix(1 0 0 -1 0.2002 -1487.2285)" gradientUnits="userSpaceOnUse"&gt;
		&lt;stop  offset="0" style="stop-color:#FFD28F"/&gt;
		&lt;stop  offset="1" style="stop-color:#FFAB4F"/&gt;
	&lt;/radialGradient&gt;
	&lt;path id="face_x5F_white_17_" fill="url(#face_x5F_white_3_)" stroke="#ED9135" stroke-width="0.5" stroke-miterlimit="10" d="
		M52.059,11.679c0.043,5.1-3.369,9.26-7.623,9.293c-4.25,0.034-7.731-4.073-7.774-9.172c-0.042-5.1,3.368-9.261,7.622-9.294
		C48.536,2.473,52.016,6.579,52.059,11.679z"/&gt;
	
		&lt;linearGradient id="face_highlight_3_" gradientUnits="userSpaceOnUse" x1="4409.9326" y1="8522.0703" x2="4421.7476" y2="8568.7969" gradientTransform="matrix(0.275 0 0 0.2733 -1169.7629 -2324.9595)"&gt;
		&lt;stop  offset="0" style="stop-color:#FFFFFF;stop-opacity:0.24"/&gt;
		&lt;stop  offset="1" style="stop-color:#FFFFFF;stop-opacity:0.16"/&gt;
	&lt;/linearGradient&gt;
	&lt;path id="face_highlight_17_" fill="url(#face_highlight_3_)" d="M44.2,3.166c-3.019,0.023-5.374,2.247-6.394,5.193
		c-0.332,0.96-0.147,2.021,0.489,2.814c1.364,1.699,2.864,3.142,4.729,4.044c1.568,0.759,3.768,1.192,5.945,0.624
		c1.139-0.297,1.994-1.229,2.188-2.383c0.092-0.548,0.146-1.145,0.143-1.777C51.262,6.977,48.357,3.134,44.2,3.166z"/&gt;
	
		&lt;path id="hair_x5F_gray_17_" fill="#ECECEC" stroke="#9B9B9B" stroke-width="0.5" stroke-linecap="round" stroke-linejoin="round" d="
		M40.359,6.625c0,0,2.66,3.625,7.5,1.875c1.365-0.281,4.529,0.518,4.529,0.518s-1.828-8.085-8.523-7.646
		c-8.943,0.69-7.615,11.467-7.615,11.467s1.384-0.342,2.518-2.401C39.255,9.553,40.359,6.625,40.359,6.625z"/&gt;
	
		&lt;radialGradient id="collar_x5F_body_2_" cx="37.6602" cy="-1515.813" r="16.2003" gradientTransform="matrix(1 0 0 -1 0.2002 -1487.2285)" gradientUnits="userSpaceOnUse"&gt;
		&lt;stop  offset="0" style="stop-color:#B0E8FF"/&gt;
		&lt;stop  offset="1" style="stop-color:#74AEEE"/&gt;
	&lt;/radialGradient&gt;
	&lt;path id="collar_x5F_body_8_" fill="url(#collar_x5F_body_2_)" stroke="#5491CF" stroke-width="0.5" d="M30.471,31.384
		c0,0.97,0.787,1.747,1.762,1.747h24.256c0.974,0,1.761-0.779,1.761-1.747c0,0-0.922-3.431-3.263-5.771
		c-2.407-2.406-5.623-3.072-5.623-3.072c-0.885,0.827-2.805,1.4-5.03,1.4s-4.146-0.573-5.031-1.4c0,0-2.878,0.293-5.595,3.01
		C30.91,28.345,30.471,31.384,30.471,31.384z"/&gt;
	
		&lt;radialGradient id="collar_x5F_r_2_" cx="45.8311" cy="-1510.8745" r="4.6401" gradientTransform="matrix(1 0 0 -1 0.2002 -1487.2285)" gradientUnits="userSpaceOnUse"&gt;
		&lt;stop  offset="0" style="stop-color:#80CCFF"/&gt;
		&lt;stop  offset="1" style="stop-color:#74AEEE"/&gt;
	&lt;/radialGradient&gt;
	&lt;path id="collar_x5F_r_8_" fill="url(#collar_x5F_r_2_)" stroke="#5491CF" stroke-width="0.5" d="M49.301,20.69
		c0,0-0.287,1.185-1.506,2.221c-1.055,0.897-2.893,1.036-2.893,1.036l1.986,3.108c0,0,1.479-0.818,2.504-1.924
		c0.961-1.036,0.686-2.74,0.686-2.74L49.301,20.69z"/&gt;
	
		&lt;radialGradient id="collar_x5F_l_2_" cx="39.6494" cy="-1510.896" r="4.6426" gradientTransform="matrix(1 0 0 -1 0.2002 -1487.2285)" gradientUnits="userSpaceOnUse"&gt;
		&lt;stop  offset="0" style="stop-color:#80CCFF"/&gt;
		&lt;stop  offset="1" style="stop-color:#74AEEE"/&gt;
	&lt;/radialGradient&gt;
	&lt;path id="collar_x5F_l_8_" fill="url(#collar_x5F_l_2_)" stroke="#5491CF" stroke-width="0.5" d="M39.536,20.711
		c0,0,0.288,1.185,1.506,2.221c1.056,0.896,2.894,1.036,2.894,1.036l-1.987,3.108c0,0-1.479-0.818-2.505-1.925
		c-0.961-1.036-0.685-2.74-0.685-2.74L39.536,20.711z"/&gt;
	
		&lt;radialGradient id="Knob2_2_" cx="44.0645" cy="-742.6421" r="0.4846" gradientTransform="matrix(1 0 0 -1 0.1201 -714.5371)" gradientUnits="userSpaceOnUse"&gt;
		&lt;stop  offset="0" style="stop-color:#80CCFF"/&gt;
		&lt;stop  offset="1" style="stop-color:#74AEEE"/&gt;
	&lt;/radialGradient&gt;
	&lt;circle id="Knob2_8_" fill="url(#Knob2_2_)" stroke="#5491CF" stroke-width="0.5" cx="44.35" cy="28.127" r="0.292"/&gt;
	
		&lt;radialGradient id="Knob1_2_" cx="44.083" cy="-745.7642" r="0.4847" gradientTransform="matrix(1 0 0 -1 0.1201 -714.5371)" gradientUnits="userSpaceOnUse"&gt;
		&lt;stop  offset="0" style="stop-color:#80CCFF"/&gt;
		&lt;stop  offset="1" style="stop-color:#74AEEE"/&gt;
	&lt;/radialGradient&gt;
	&lt;circle id="Knob1_8_" fill="url(#Knob1_2_)" stroke="#5491CF" stroke-width="0.5" cx="44.369" cy="31.25" r="0.292"/&gt;
	
		&lt;radialGradient id="jacket_x5F_body_1_" cx="36.7842" cy="-1515.3755" r="20.459" gradientTransform="matrix(1 0 0 -1 0.2002 -1487.2285)" gradientUnits="userSpaceOnUse"&gt;
		&lt;stop  offset="0" style="stop-color:#D0D0D0"/&gt;
		&lt;stop  offset="1" style="stop-color:#9B9B9B"/&gt;
	&lt;/radialGradient&gt;
	
		&lt;path id="jacket_x5F_body_8_" fill="url(#jacket_x5F_body_1_)" stroke="#4B4B4B" stroke-width="0.5" stroke-linecap="round" stroke-linejoin="round" d="
		M54.986,25.612c-2.217-2.217-5.111-2.955-5.557-3.059l-2.695,10.572h-4.43L39.686,22.84c-0.145-0.096-0.271-0.196-0.385-0.301
		c0,0-2.877,0.293-5.595,3.01c-2.796,2.796-3.233,5.835-3.233,5.835c0,0.97,0.786,1.747,1.76,1.747h24.256
		c0.975,0,1.761-0.779,1.761-1.747C58.248,31.384,57.326,27.953,54.986,25.612z"/&gt;
	
		&lt;polygon id="jacket_x5F_r_8_" fill="#9B9B9B" stroke="#4B4B4B" stroke-width="0.5" stroke-linecap="round" stroke-linejoin="round" points="
		49.688,21.038 51.305,23.187 50.615,27.835 48.914,28.25 49.547,29.563 47.509,33.126 46.734,33.126 	"/&gt;
	
		&lt;polygon id="jacket_x5F_l_8_" fill="#B2B2B2" stroke="#4B4B4B" stroke-width="0.5" stroke-linecap="round" stroke-linejoin="round" points="
		39.354,21.038 37.734,23.187 38.426,27.835 40.127,28.25 39.493,29.563 41.531,33.126 42.307,33.126 	"/&gt;
	&lt;path id="path5135_8_" fill="#D54A30" stroke="#B51A19" stroke-width="0.5" d="M43.936,27.61c0,0-0.926,1.028-1.041,3.271
		c-0.115,2.244,0,2.244,0,2.244h3.273c0,0,0.115,0.031-0.077-2.182c-0.2-2.302-1.194-3.334-1.194-3.334L43.936,27.61L43.936,27.61z"
		/&gt;
	&lt;path id="path5131_8_" fill="#D54A30" stroke="#B51A19" stroke-width="0.5" d="M44.377,24.34h0.063l1.275,2.001
		c0.258,0.477-0.604,0.898-0.729,1.274l-1.139-0.008c-0.121-0.38-1.129-0.683-0.738-1.292L44.377,24.34z"/&gt;
	
		&lt;linearGradient id="neck_x5F_white_4_" gradientUnits="userSpaceOnUse" x1="43.6328" y1="-1527.7417" x2="44.3621" y2="-1545.2545" gradientTransform="matrix(1 0 0 -1 0.2002 -1487.2285)"&gt;
		&lt;stop  offset="0.2711" style="stop-color:#FFAB4F"/&gt;
		&lt;stop  offset="1" style="stop-color:#FFD28F"/&gt;
	&lt;/linearGradient&gt;
	&lt;path id="neck_x5F_white_11_" fill="url(#neck_x5F_white_4_)" stroke="#FFAB4F" stroke-width="0.5" stroke-miterlimit="10" d="
		M39.639,43.898h9.094v10.115c-0.655,0.187-8.586,0.219-9.094,0.086V43.898z"/&gt;
	
		&lt;linearGradient id="SVGID_3_" gradientUnits="userSpaceOnUse" x1="43.1309" y1="-1524.2065" x2="43.7515" y2="-1539.1072" gradientTransform="matrix(1 0 0 -1 0.2002 -1487.2285)"&gt;
		&lt;stop  offset="0.2711" style="stop-color:#FFAB4F"/&gt;
		&lt;stop  offset="1" style="stop-color:#FFD28F"/&gt;
	&lt;/linearGradient&gt;
	&lt;path fill="url(#SVGID_3_)" stroke="#ED9135" stroke-width="0.5" stroke-miterlimit="10" d="M54.766,50.611
		c-2.199-2.196-5.477-2.94-6.033-3.055v-3.658h-9.094c0,0,0.021,3.453,0,3.436c0,0-3.437,0.499-6.152,3.216
		c-2.797,2.796-3.235,5.835-3.235,5.835c0,0.971,0.787,1.746,1.763,1.746h24.254c0.975,0,1.762-0.777,1.762-1.746
		C58.027,56.384,57.105,52.953,54.766,50.611z"/&gt;
	
		&lt;radialGradient id="face_x5F_white_4_" cx="43.752" cy="-1525.0908" r="11.7114" fx="41.4673" fy="-1526.3356" gradientTransform="matrix(1 0 0 -1 0.2002 -1487.2285)" gradientUnits="userSpaceOnUse"&gt;
		&lt;stop  offset="0" style="stop-color:#FFD28F"/&gt;
		&lt;stop  offset="1" style="stop-color:#FFAB4F"/&gt;
	&lt;/radialGradient&gt;
	&lt;path id="face_x5F_white_11_" fill="url(#face_x5F_white_4_)" stroke="#ED9135" stroke-width="0.5" stroke-miterlimit="10" d="
		M51.838,36.68c0.043,5.1-3.369,9.26-7.623,9.293c-4.251,0.033-7.732-4.074-7.775-9.173c-0.041-5.1,3.369-9.261,7.623-9.294
		C48.314,27.473,51.795,31.579,51.838,36.68z"/&gt;
	
		&lt;linearGradient id="face_highlight_4_" gradientUnits="userSpaceOnUse" x1="4409.1299" y1="8613.5469" x2="4420.9448" y2="8660.2725" gradientTransform="matrix(0.275 0 0 0.2733 -1169.7629 -2324.9595)"&gt;
		&lt;stop  offset="0" style="stop-color:#FFFFFF;stop-opacity:0.24"/&gt;
		&lt;stop  offset="1" style="stop-color:#FFFFFF;stop-opacity:0.16"/&gt;
	&lt;/linearGradient&gt;
	&lt;path id="face_highlight_11_" fill="url(#face_highlight_4_)" d="M43.979,28.166c-3.018,0.023-5.373,2.247-6.394,5.193
		c-0.332,0.959-0.147,2.021,0.49,2.813c1.364,1.699,2.864,3.142,4.729,4.044c1.568,0.76,3.768,1.192,5.945,0.624
		c1.139-0.297,1.994-1.229,2.188-2.383c0.092-0.548,0.146-1.146,0.144-1.776C51.041,31.977,48.137,28.134,43.979,28.166z"/&gt;
	&lt;path fill="#CC9869" stroke="#99724F" stroke-width="0.5" stroke-linecap="round" stroke-linejoin="round" d="M46.107,29.969
		c0,0,2.845,1.375,3.845,4.062c1.052,2.826,2.062,4.117,2.095,4c0.938-3.395,0.531-10.718-5.086-10.792
		c-10.229-3.832-12.79,5.98-11.947,9.824c0.539,2.457,1.117,3.344,1.971,4.041C36.982,41.104,37.514,33.781,46.107,29.969z"/&gt;
	
		&lt;linearGradient id="body_2_" gradientUnits="userSpaceOnUse" x1="83.9365" y1="2419.1064" x2="51.7404" y2="2419.1064" gradientTransform="matrix(0.9852 0 0 0.9852 -22.6981 -2330.2188)"&gt;
		&lt;stop  offset="0" style="stop-color:#49AD33"/&gt;
		&lt;stop  offset="1" style="stop-color:#C2DA92"/&gt;
	&lt;/linearGradient&gt;
	&lt;path id="body_35_" fill="url(#body_2_)" stroke="#008D33" stroke-width="0.5" d="M30.25,56.384c0,0.97,0.787,1.747,1.762,1.747
		h24.256c0.974,0,1.76-0.779,1.76-1.747c0,0-0.922-3.431-3.262-5.771c-2.408-2.406-4.123-2.572-4.123-2.572
		c-0.723,3.49-4.276,4.393-6.504,4.393c-2.227,0-5.75-0.994-6.059-4.393c0,0-1.878-0.207-4.596,2.51
		C30.689,53.346,30.25,56.384,30.25,56.384z"/&gt;
	
		&lt;radialGradient id="neck_x5F_white_5_" cx="14.0952" cy="-1534.9302" r="5.7236" fx="12.9786" fy="-1535.5386" gradientTransform="matrix(1 0 0 -1 0.2002 -1487.2285)" gradientUnits="userSpaceOnUse"&gt;
		&lt;stop  offset="0" style="stop-color:#B38E5D"/&gt;
		&lt;stop  offset="1" style="stop-color:#805126"/&gt;
	&lt;/radialGradient&gt;
	&lt;path id="neck_x5F_white_2_" fill="url(#neck_x5F_white_5_)" stroke="#5B453B" stroke-width="0.5" stroke-miterlimit="10" d="
		M9.859,43.898h9.094v6.615c-0.656,0.187-8.586,0.219-9.094,0.086V43.898z"/&gt;
	
		&lt;radialGradient id="SVGID_4_" cx="13.8213" cy="-1539.1084" r="15.5272" fx="10.7923" fy="-1540.7589" gradientTransform="matrix(1 0 0 -1 0.2002 -1487.2285)" gradientUnits="userSpaceOnUse"&gt;
		&lt;stop  offset="0" style="stop-color:#B38E5D"/&gt;
		&lt;stop  offset="1" style="stop-color:#805126"/&gt;
	&lt;/radialGradient&gt;
	&lt;path fill="url(#SVGID_4_)" stroke="#5B453B" stroke-width="0.5" stroke-miterlimit="10" d="M24.986,50.611
		c-2.199-2.196-5.477-2.94-6.033-3.055v-3.658H9.859c0,0,0.02,3.453,0,3.436c0,0-3.437,0.499-6.153,3.216
		c-2.796,2.796-3.235,5.835-3.235,5.835c0,0.971,0.787,1.746,1.762,1.746h24.255c0.974,0,1.761-0.777,1.761-1.746
		C28.248,56.384,27.326,52.953,24.986,50.611z"/&gt;
	
		&lt;radialGradient id="face_x5F_white_5_" cx="13.9722" cy="-1525.0908" r="11.7123" fx="11.6873" fy="-1526.3357" gradientTransform="matrix(1 0 0 -1 0.2002 -1487.2285)" gradientUnits="userSpaceOnUse"&gt;
		&lt;stop  offset="0" style="stop-color:#B38E5D"/&gt;
		&lt;stop  offset="1" style="stop-color:#805126"/&gt;
	&lt;/radialGradient&gt;
	&lt;path id="face_x5F_white_2_" fill="url(#face_x5F_white_5_)" stroke="#5B453B" stroke-width="0.5" stroke-miterlimit="10" d="
		M22.059,36.68c0.043,5.1-3.369,9.26-7.623,9.293c-4.251,0.033-7.732-4.074-7.775-9.173c-0.042-5.1,3.369-9.261,7.622-9.294
		C18.536,27.473,22.016,31.579,22.059,36.68z"/&gt;
	
		&lt;linearGradient id="face_highlight_5_" gradientUnits="userSpaceOnUse" x1="4300.8428" y1="8613.5449" x2="4312.6582" y2="8660.2734" gradientTransform="matrix(0.275 0 0 0.2733 -1169.7629 -2324.9595)"&gt;
		&lt;stop  offset="0" style="stop-color:#FFFFFF;stop-opacity:0.42"/&gt;
		&lt;stop  offset="1" style="stop-color:#FFFFFF;stop-opacity:0.12"/&gt;
	&lt;/linearGradient&gt;
	&lt;path id="face_highlight_2_" fill="url(#face_highlight_5_)" d="M14.2,28.166c-3.018,0.023-5.374,2.247-6.394,5.193
		c-0.332,0.959-0.147,2.021,0.49,2.813c1.364,1.699,2.864,3.142,4.73,4.044c1.568,0.76,3.767,1.192,5.945,0.624
		c1.139-0.297,1.994-1.229,2.188-2.383c0.092-0.548,0.146-1.146,0.143-1.776C21.262,31.977,18.357,28.134,14.2,28.166z"/&gt;
	
		&lt;path id="Hair_Young_Black_1_" fill="#4B4B4B" stroke="#000000" stroke-width="0.5" stroke-linecap="round" stroke-linejoin="round" d="
		M10.359,31.625c1.709,2.166,4.667,3.459,4.667,3.459l-0.708-1.75c0,0,3.547,2.346,4.041,2.166c0.484-0.1-0.541-1.902-0.541-1.902
		s1.568,0.896,2.428,1.983c0.9,1.14,2.143,1.752,2.143,1.752s1.346-10.974-8.523-10.961C4.359,26.354,6.25,38.839,6.25,38.839
		L7.568,33.5c0,0,0.457,2.879,0.699,2.438C9.151,32.605,9.651,30.75,10.359,31.625z"/&gt;
	
		&lt;radialGradient id="collar_x5F_body_3_" cx="7.6602" cy="-1540.813" r="16.2003" gradientTransform="matrix(1 0 0 -1 0.2002 -1487.2285)" gradientUnits="userSpaceOnUse"&gt;
		&lt;stop  offset="0" style="stop-color:#B0E8FF"/&gt;
		&lt;stop  offset="1" style="stop-color:#74AEEE"/&gt;
	&lt;/radialGradient&gt;
	&lt;path id="collar_x5F_body_1_" fill="url(#collar_x5F_body_3_)" stroke="#5491CF" stroke-width="0.5" d="M0.471,56.384
		c0,0.97,0.787,1.747,1.762,1.747h24.255c0.974,0,1.761-0.779,1.761-1.747c0,0-0.922-3.431-3.262-5.771
		c-2.408-2.406-5.623-3.072-5.623-3.072c-0.885,0.827-2.805,1.4-5.031,1.4s-4.146-0.573-5.031-1.4c0,0-2.878,0.293-5.595,3.01
		C0.91,53.346,0.471,56.384,0.471,56.384z"/&gt;
	
		&lt;radialGradient id="collar_x5F_r_3_" cx="15.8306" cy="-1535.874" r="4.6412" gradientTransform="matrix(1 0 0 -1 0.2002 -1487.2285)" gradientUnits="userSpaceOnUse"&gt;
		&lt;stop  offset="0" style="stop-color:#80CCFF"/&gt;
		&lt;stop  offset="1" style="stop-color:#74AEEE"/&gt;
	&lt;/radialGradient&gt;
	&lt;path id="collar_x5F_r_1_" fill="url(#collar_x5F_r_3_)" stroke="#5491CF" stroke-width="0.5" d="M19.301,45.689
		c0,0-0.287,1.186-1.506,2.222c-1.055,0.897-2.893,1.036-2.893,1.036l1.986,3.107c0,0,1.479-0.818,2.504-1.924
		c0.961-1.035,0.686-2.74,0.686-2.74L19.301,45.689z"/&gt;
	
		&lt;radialGradient id="collar_x5F_l_3_" cx="9.6494" cy="-1535.896" r="4.6422" gradientTransform="matrix(1 0 0 -1 0.2002 -1487.2285)" gradientUnits="userSpaceOnUse"&gt;
		&lt;stop  offset="0" style="stop-color:#80CCFF"/&gt;
		&lt;stop  offset="1" style="stop-color:#74AEEE"/&gt;
	&lt;/radialGradient&gt;
	&lt;path id="collar_x5F_l_1_" fill="url(#collar_x5F_l_3_)" stroke="#5491CF" stroke-width="0.5" d="M9.536,45.711
		c0,0,0.288,1.186,1.506,2.221c1.055,0.896,2.893,1.037,2.893,1.037l-1.987,3.107c0,0-1.479-0.818-2.504-1.926
		c-0.961-1.035-0.685-2.739-0.685-2.739L9.536,45.711z"/&gt;
	
		&lt;radialGradient id="Knob2_3_" cx="14.0645" cy="-767.6421" r="0.4842" gradientTransform="matrix(1 0 0 -1 0.1201 -714.5371)" gradientUnits="userSpaceOnUse"&gt;
		&lt;stop  offset="0" style="stop-color:#80CCFF"/&gt;
		&lt;stop  offset="1" style="stop-color:#74AEEE"/&gt;
	&lt;/radialGradient&gt;
	&lt;circle id="Knob2_1_" fill="url(#Knob2_3_)" stroke="#5491CF" stroke-width="0.5" cx="14.35" cy="53.127" r="0.292"/&gt;
	
		&lt;radialGradient id="Knob1_3_" cx="14.0835" cy="-770.7642" r="0.4844" gradientTransform="matrix(1 0 0 -1 0.1201 -714.5371)" gradientUnits="userSpaceOnUse"&gt;
		&lt;stop  offset="0" style="stop-color:#80CCFF"/&gt;
		&lt;stop  offset="1" style="stop-color:#74AEEE"/&gt;
	&lt;/radialGradient&gt;
	&lt;circle id="Knob1_1_" fill="url(#Knob1_3_)" stroke="#5491CF" stroke-width="0.5" cx="14.369" cy="56.25" r="0.292"/&gt;
	&lt;path id="path5135_1_" fill="#D54A30" stroke="#B51A19" stroke-width="0.5" d="M13.935,52.609c0,0-0.925,1.029-1.04,3.271
		c-0.115,2.244,0,2.244,0,2.244h3.273c0,0,0.115,0.031-0.077-2.182c-0.2-2.303-1.194-3.334-1.194-3.334H13.935L13.935,52.609z"/&gt;
	&lt;path id="path5131_1_" fill="#D54A30" stroke="#B51A19" stroke-width="0.5" d="M14.377,49.34h0.062l1.276,2.001
		c0.258,0.478-0.604,0.897-0.728,1.274l-1.14-0.008c-0.121-0.381-1.128-0.684-0.738-1.293L14.377,49.34z"/&gt;
&lt;/g&gt;
&lt;/svg&gt;
</y:Resource>
      <y:Resource id="2">&lt;?xml version="1.0" encoding="utf-8"?&gt;
&lt;svg version="1.1" id="Ebene_1" xmlns="http://www.w3.org/2000/svg" xmlns:xlink="http://www.w3.org/1999/xlink" x="0px" y="0px"
	 width="57px" height="65px" viewBox="0 0 57 65" enable-background="new 0 0 57 65" xml:space="preserve"&gt;
&lt;g&gt;
	
		&lt;linearGradient id="SVGID_1_" gradientUnits="userSpaceOnUse" x1="26.5796" y1="796.6533" x2="27.8207" y2="826.4517" gradientTransform="matrix(1 0 0 1 0.0801 -771.6914)"&gt;
		&lt;stop  offset="0.2711" style="stop-color:#FFAB4F"/&gt;
		&lt;stop  offset="1" style="stop-color:#FFD28F"/&gt;
	&lt;/linearGradient&gt;
	&lt;path fill="url(#SVGID_1_)" stroke="#ED9135" stroke-miterlimit="10" d="M49.529,52.225c-4.396-4.396-10.951-5.884-12.063-6.109
		V38.8H19.278c0,0,0.038,6.903,0,6.868c0,0-6.874,0.997-12.308,6.432C1.378,57.691,0.5,63.77,0.5,63.77
		c0,1.937,1.575,3.492,3.523,3.492h48.51c1.947,0,3.521-1.558,3.521-3.492C56.055,63.768,54.211,56.906,49.529,52.225z"/&gt;
	&lt;path id="body_9_" fill="#ECECEC" stroke="#9B9B9B" stroke-miterlimit="10" d="M0.5,63.768c0,1.938,1.575,3.494,3.523,3.494h48.51
		c1.947,0,3.521-1.559,3.521-3.494c0,0-1.844-6.861-6.525-11.543c-4.815-4.814-11.244-6.146-11.244-6.146
		c-1.771,1.655-5.61,3.802-10.063,3.802c-4.453,0-8.292-2.146-10.063-3.802c0,0-5.755,0.586-11.189,6.021
		C1.378,57.689,0.5,63.768,0.5,63.768z"/&gt;
	&lt;path fill="#2068A3" stroke="#2068A3" d="M28.106,34.486c-8.112,0-12.688,4.313-12.688,10.438c0,7.422,12.688,10.438,12.688,10.438
		s14.688-3.016,14.688-10.438C42.793,39.75,36.215,34.486,28.106,34.486z M26.288,54.051c0,0-7.135-2.093-8.805-7.201
		c-0.222-0.682,0.147-1.156,0.795-1.522V38.8h20.188v6.663c0.235,0.352,1.109,0.737,1.229,1.387
		C40.445,50.917,26.288,54.051,26.288,54.051z"/&gt;
	&lt;path fill="#5491CF" stroke="#2068A3" stroke-miterlimit="10" d="M49.529,52.225c-2.239-2.24-5.041-3.724-7.396-4.67
		c-2.854,5.51-14.027,7.807-14.027,7.807s-10.472-2.489-12.387-8.514c-2.439,0.771-5.787,2.287-8.749,5.25
		c-5.592,5.592-6.47,11.67-6.47,11.67c0,1.937,1.575,3.492,3.523,3.492h48.51c1.948,0,3.522-1.558,3.522-3.492
		C56.055,63.768,54.211,56.906,49.529,52.225z"/&gt;
	&lt;path fill="#5491CF" stroke="#2068A3" d="M13.404,45.173c1.15-1.81,2.039-3.832,3.332-5.397c-0.514,1.027-1.669,4.084-1.669,5.148
		c0,5.186,10.366,9.079,14.688,10.438c-3.472,1.627-9.134-1.498-11.34-2.365c-3.601-1.419-4.071-3.063-5.89-4.857
		C12.523,48.135,12.878,46,13.404,45.173z"/&gt;
	&lt;path fill="#5491CF" stroke="#2068A3" d="M45.777,44.924c-1.317-1.568-5.11-9.424-6.604-6.617c0.516,1.025,3.617,3.693,3.617,6.617
		c0,5.186-10.266,8.576-16.693,9.145c1.429,4.934,11.367,1.293,13.804-0.316c3.563-2.354,4.557-5.133,7.852-3.705
		C47.754,50.045,48.006,47.574,45.777,44.924z"/&gt;
	&lt;path fill="none" stroke="#2068A3" stroke-linecap="round" d="M30.777,55.167c0.357,0.836-0.153,1.983-0.352,2.813
		c-0.256,1.084-0.072,2.104,0.102,3.186c0.164,1.02,0.156,2.107,0.25,3.167c0.082,0.916,0.482,1.849,0.357,2.75"/&gt;
	&lt;path fill="none" stroke="#2068A3" stroke-linecap="round" d="M23.695,54.417c-0.508,0.584-0.476,2.209-0.398,3
		c0.116,1.183,0.456,2.099,0.333,3.333c-0.192,1.943,0.154,4.479-0.436,6.333"/&gt;
	
		&lt;radialGradient id="face_x5F_white_1_" cx="27.8228" cy="798.418" r="23.4236" fx="23.2533" fy="795.9283" gradientTransform="matrix(1 0 0 1 0.0801 -771.6914)" gradientUnits="userSpaceOnUse"&gt;
		&lt;stop  offset="0" style="stop-color:#FFD28F"/&gt;
		&lt;stop  offset="1" style="stop-color:#FFAB4F"/&gt;
	&lt;/radialGradient&gt;
	&lt;path id="face_x5F_white_3_" fill="url(#face_x5F_white_1_)" stroke="#ED9135" stroke-miterlimit="10" d="M43.676,24.357
		c0.086,10.2-6.738,18.52-15.245,18.586c-8.504,0.068-15.468-8.146-15.554-18.344C12.794,14.4,19.618,6.079,28.123,6.012
		C36.627,5.945,43.59,14.158,43.676,24.357z"/&gt;
	
		&lt;linearGradient id="face_highlight_2_" gradientUnits="userSpaceOnUse" x1="2236.3486" y1="-3813.3281" x2="2259.9785" y2="-3906.7793" gradientTransform="matrix(0.275 0 0 -0.2733 -589.5001 -1032.9376)"&gt;
		&lt;stop  offset="0" style="stop-color:#FFFFFF;stop-opacity:0.72"/&gt;
		&lt;stop  offset="1" style="stop-color:#FFFFFF;stop-opacity:0.2067"/&gt;
	&lt;/linearGradient&gt;
	&lt;path id="face_highlight_1_" fill="url(#face_highlight_2_)" d="M27.958,7.333c-6.035,0.047-10.747,4.493-12.787,10.386
		c-0.664,1.919-0.294,4.043,0.98,5.629c2.73,3.398,5.729,6.283,9.461,8.088c3.137,1.518,7.535,2.384,11.893,1.247
		c2.274-0.592,3.988-2.459,4.375-4.766c0.181-1.094,0.293-2.289,0.283-3.553C42.083,14.952,36.271,7.268,27.958,7.333z"/&gt;
	&lt;path fill="#FFB380" stroke="#953606" d="M32.215,10.938c0,0,5.688,2.75,7.688,8.125c2.104,5.652,4.123,8.232,4.188,8
		c1.875-6.794,1.063-21.438-10.17-21.587C13.467-2.187,8.342,17.438,10.029,25.126c1.078,4.911,2.234,6.686,3.938,8.08
		C13.966,33.205,15.028,18.563,32.215,10.938z"/&gt;
	&lt;path fill="#CC9869" stroke="#99724F" stroke-linecap="round" stroke-linejoin="round" d="M32.215,10.938
		c0,0,5.688,2.75,7.688,8.125c2.104,5.652,4.123,8.232,4.188,8c1.875-6.794,1.063-21.438-10.17-21.587
		C13.467-2.187,8.342,17.438,10.029,25.126c1.078,4.911,2.234,6.686,3.938,8.08C13.966,33.205,15.028,18.563,32.215,10.938z"/&gt;
&lt;/g&gt;
&lt;/svg&gt;
</y:Resource>
    </y:Resources>
  </data>
</graphml>
